…
)
`summarise()` ungrouping output (override with `.groups` argument)
Parsed with column specification:
cols(
  .default = col_double(),
  date = col_date(format = ""),
  state = col_character()
)
See spec(...) for full column specifications.
`summarise()` ungrouping output (override with `.groups` argument)
Auto-refreshing stale OAuth token.
Writing to "vaccine_viz"
Writing to sheet "vaccines"
`summarise()` ungrouping output (override with `.groups` argument)
# A tibble: 23 x 2
   date         total
   <date>       <dbl>
 1 2020-12-20  556208
 2 2020-12-21  614117
 3 2020-12-22  614117
 4 2020-12-23 1008025
 5 2020-12-24 1008025
 6 2020-12-25 1008025
 7 2020-12-26 1944585
 8 2020-12-27 1944585
 9 2020-12-28 2127143
10 2020-12-29 2127143
# ... with 13 more rows
…
)
`summarise()` ungrouping output (override with `.groups` argument)
Parsed with column specification:
cols(
  .default = col_double(),
  date = col_date(format = ""),
  state = col_character()
)
See spec(...) for full column specifications.
`summarise()` ungrouping output (override with `.groups` argument)
Writing to "vaccine_viz"
Writing to sheet "vaccines"
Auto-refreshing stale OAuth token.
`summarise()` ungrouping output (override with `.groups` argument)
# A tibble: 23 x 2
   date         total
   <date>       <dbl>
 1 2020-12-20  556208
 2 2020-12-21  614117
 3 2020-12-22  614117
 4 2020-12-23 1008025
 5 2020-12-24 1008025
 6 2020-12-25 1008025
 7 2020-12-26 1944585
 8 2020-12-27 1944585
 9 2020-12-28 2127143
10 2020-12-29 2127143
# ... with 13 more rows
…
  skipped = col_character()
)
`summarise()` ungrouping output (override with `.groups` argument)
Parsed with column specification:
cols(
  .default = col_double(),
  date = col_date(format = ""),
  state = col_character()
)
See spec(...) for full column specifications.
`summarise()` ungrouping output (override with `.groups` argument)
Writing to "vaccine_viz"
Writing to sheet "vaccines"
`summarise()` ungrouping output (override with `.groups` argument)
# A tibble: 23 x 2
   date         total
   <date>       <dbl>
 1 2020-12-20  556208
 2 2020-12-21  614117
 3 2020-12-22  614117
 4 2020-12-23 1008025
 5 2020-12-24 1008025
 6 2020-12-25 1008025
 7 2020-12-26 1944585
 8 2020-12-27 1944585
 9 2020-12-28 2127143
10 2020-12-29 2127143
# ... with 13 more rows
…
  skipped = col_character()
)
`summarise()` ungrouping output (override with `.groups` argument)
Parsed with column specification:
cols(
  .default = col_double(),
  date = col_date(format = ""),
  state = col_character()
)
See spec(...) for full column specifications.
`summarise()` ungrouping output (override with `.groups` argument)
Writing to "vaccine_viz"
Writing to sheet "vaccines"
`summarise()` ungrouping output (override with `.groups` argument)
# A tibble: 24 x 2
   date         total
   <date>       <dbl>
 1 2020-12-20  556208
 2 2020-12-21  614117
 3 2020-12-22  614117
 4 2020-12-23 1008025
 5 2020-12-24 1008025
 6 2020-12-25 1008025
 7 2020-12-26 1944585
 8 2020-12-27 1944585
 9 2020-12-28 2127143
10 2020-12-29 2127143
# ... with 14 more rows
…
)
`summarise()` ungrouping output (override with `.groups` argument)
Parsed with column specification:
cols(
  .default = col_double(),
  date = col_date(format = ""),
  state = col_character()
)
See spec(...) for full column specifications.
`summarise()` ungrouping output (override with `.groups` argument)
Auto-refreshing stale OAuth token.
Writing to "vaccine_viz"
Writing to sheet "vaccines"
`summarise()` ungrouping output (override with `.groups` argument)
# A tibble: 24 x 2
   date         total
   <date>       <dbl>
 1 2020-12-20  556208
 2 2020-12-21  614117
 3 2020-12-22  614117
 4 2020-12-23 1008025
 5 2020-12-24 1008025
 6 2020-12-25 1008025
 7 2020-12-26 1944585
 8 2020-12-27 1944585
 9 2020-12-28 2127143
10 2020-12-29 2127143
# ... with 14 more rows
…
)
See spec(...) for full column specifications.
`summarise()` ungrouping output (override with `.groups` argument)
Parsed with column specification:
cols(
  .default = col_double(),
  date = col_date(format = ""),
  state = col_character()
)
See spec(...) for full column specifications.
`summarise()` ungrouping output (override with `.groups` argument)
Writing to "vaccine_viz"
Writing to sheet "vaccines"
`summarise()` ungrouping output (override with `.groups` argument)
# A tibble: 24 x 2
   date         total
   <date>       <dbl>
 1 2020-12-20  556208
 2 2020-12-21  614117
 3 2020-12-22  614117
 4 2020-12-23 1008025
 5 2020-12-24 1008025
 6 2020-12-25 1008025
 7 2020-12-26 1944585
 8 2020-12-27 1944585
 9 2020-12-28 2127143
10 2020-12-29 2127143
# ... with 14 more rows
…
See spec(...) for full column specifications.
`summarise()` ungrouping output (override with `.groups` argument)
Parsed with column specification:
cols(
  .default = col_double(),
  date = col_date(format = ""),
  state = col_character()
)
See spec(...) for full column specifications.
`summarise()` ungrouping output (override with `.groups` argument)
Auto-refreshing stale OAuth token.
Writing to "vaccine_viz"
Writing to sheet "vaccines"
`summarise()` ungrouping output (override with `.groups` argument)
# A tibble: 24 x 2
   date         total
   <date>       <dbl>
 1 2020-12-20  556208
 2 2020-12-21  614117
 3 2020-12-22  614117
 4 2020-12-23 1008025
 5 2020-12-24 1008025
 6 2020-12-25 1008025
 7 2020-12-26 1944585
 8 2020-12-27 1944585
 9 2020-12-28 2127143
10 2020-12-29 2127143
# ... with 14 more rows
…
See spec(...) for full column specifications.
`summarise()` ungrouping output (override with `.groups` argument)
Parsed with column specification:
cols(
  .default = col_double(),
  date = col_date(format = ""),
  state = col_character()
)
See spec(...) for full column specifications.
`summarise()` ungrouping output (override with `.groups` argument)
Auto-refreshing stale OAuth token.
Writing to "vaccine_viz"
Writing to sheet "vaccines"
`summarise()` ungrouping output (override with `.groups` argument)
# A tibble: 24 x 2
   date         total
   <date>       <dbl>
 1 2020-12-20  556208
 2 2020-12-21  614117
 3 2020-12-22  614117
 4 2020-12-23 1008025
 5 2020-12-24 1008025
 6 2020-12-25 1008025
 7 2020-12-26 1944585
 8 2020-12-27 1944585
 9 2020-12-28 2127143
10 2020-12-29 2127143
# ... with 14 more rows
…
See spec(...) for full column specifications.
`summarise()` ungrouping output (override with `.groups` argument)
Parsed with column specification:
cols(
  .default = col_double(),
  date = col_date(format = ""),
  state = col_character()
)
See spec(...) for full column specifications.
`summarise()` ungrouping output (override with `.groups` argument)
Auto-refreshing stale OAuth token.
Writing to "vaccine_viz"
Writing to sheet "vaccines"
`summarise()` ungrouping output (override with `.groups` argument)
# A tibble: 25 x 2
   date         total
   <date>       <dbl>
 1 2020-12-20  556208
 2 2020-12-21  614117
 3 2020-12-22  614117
 4 2020-12-23 1008025
 5 2020-12-24 1008025
 6 2020-12-25 1008025
 7 2020-12-26 1944585
 8 2020-12-27 1944585
 9 2020-12-28 2127143
10 2020-12-29 2127143
# ... with 15 more rows
…
)
See spec(...) for full column specifications.
`summarise()` ungrouping output (override with `.groups` argument)
Parsed with column specification:
cols(
  .default = col_double(),
  date = col_date(format = ""),
  state = col_character()
)
See spec(...) for full column specifications.
`summarise()` ungrouping output (override with `.groups` argument)
Writing to "vaccine_viz"
Writing to sheet "vaccines"
`summarise()` ungrouping output (override with `.groups` argument)
# A tibble: 27 x 2
   date         total
   <date>       <dbl>
 1 2020-12-20  556208
 2 2020-12-21  614117
 3 2020-12-22  614117
 4 2020-12-23 1008025
 5 2020-12-24 1008025
 6 2020-12-25 1008025
 7 2020-12-26 1944585
 8 2020-12-27 1944585
 9 2020-12-28 2127143
10 2020-12-29 2127143
# ... with 17 more rows
…
See spec(...) for full column specifications.
`summarise()` ungrouping output (override with `.groups` argument)
Parsed with column specification:
cols(
  .default = col_double(),
  date = col_date(format = ""),
  state = col_character()
)
See spec(...) for full column specifications.
`summarise()` ungrouping output (override with `.groups` argument)
Auto-refreshing stale OAuth token.
Writing to "vaccine_viz"
Writing to sheet "vaccines"
`summarise()` ungrouping output (override with `.groups` argument)
# A tibble: 27 x 2
   date         total
   <date>       <dbl>
 1 2020-12-20  556208
 2 2020-12-21  614117
 3 2020-12-22  614117
 4 2020-12-23 1008025
 5 2020-12-24 1008025
 6 2020-12-25 1008025
 7 2020-12-26 1944585
 8 2020-12-27 1944585
 9 2020-12-28 2127143
10 2020-12-29 2127143
# ... with 17 more rows
…
See spec(...) for full column specifications.
`summarise()` ungrouping output (override with `.groups` argument)
Parsed with column specification:
cols(
  .default = col_double(),
  date = col_date(format = ""),
  state = col_character()
)
See spec(...) for full column specifications.
`summarise()` ungrouping output (override with `.groups` argument)
Auto-refreshing stale OAuth token.
Writing to "vaccine_viz"
Writing to sheet "vaccines"
`summarise()` ungrouping output (override with `.groups` argument)
# A tibble: 27 x 2
   date         total
   <date>       <dbl>
 1 2020-12-20  556208
 2 2020-12-21  614117
 3 2020-12-22  614117
 4 2020-12-23 1008025
 5 2020-12-24 1008025
 6 2020-12-25 1008025
 7 2020-12-26 1944585
 8 2020-12-27 1944585
 9 2020-12-28 2127143
10 2020-12-29 2127143
# ... with 17 more rows
…
See spec(...) for full column specifications.
`summarise()` ungrouping output (override with `.groups` argument)
Parsed with column specification:
cols(
  .default = col_double(),
  date = col_date(format = ""),
  state = col_character()
)
See spec(...) for full column specifications.
`summarise()` ungrouping output (override with `.groups` argument)
Auto-refreshing stale OAuth token.
Writing to "vaccine_viz"
Writing to sheet "vaccines"
`summarise()` ungrouping output (override with `.groups` argument)
# A tibble: 27 x 2
   date         total
   <date>       <dbl>
 1 2020-12-20  556208
 2 2020-12-21  614117
 3 2020-12-22  614117
 4 2020-12-23 1008025
 5 2020-12-24 1008025
 6 2020-12-25 1008025
 7 2020-12-26 1944585
 8 2020-12-27 1944585
 9 2020-12-28 2127143
10 2020-12-29 2127143
# ... with 17 more rows
…
See spec(...) for full column specifications.
`summarise()` ungrouping output (override with `.groups` argument)
Parsed with column specification:
cols(
  .default = col_double(),
  date = col_date(format = ""),
  state = col_character()
)
See spec(...) for full column specifications.
`summarise()` ungrouping output (override with `.groups` argument)
Writing to "vaccine_viz"
Writing to sheet "vaccines"
Auto-refreshing stale OAuth token.
`summarise()` ungrouping output (override with `.groups` argument)
# A tibble: 27 x 2
   date         total
   <date>       <dbl>
 1 2020-12-20  556208
 2 2020-12-21  614117
 3 2020-12-22  614117
 4 2020-12-23 1008025
 5 2020-12-24 1008025
 6 2020-12-25 1008025
 7 2020-12-26 1944585
 8 2020-12-27 1944585
 9 2020-12-28 2127143
10 2020-12-29 2127143
# ... with 17 more rows
…
)
See spec(...) for full column specifications.
`summarise()` ungrouping output (override with `.groups` argument)
Parsed with column specification:
cols(
  .default = col_double(),
  date = col_date(format = ""),
  state = col_character()
)
See spec(...) for full column specifications.
`summarise()` ungrouping output (override with `.groups` argument)
Writing to "vaccine_viz"
Writing to sheet "vaccines"
`summarise()` ungrouping output (override with `.groups` argument)
# A tibble: 27 x 2
   date         total
   <date>       <dbl>
 1 2020-12-20  556208
 2 2020-12-21  614117
 3 2020-12-22  614117
 4 2020-12-23 1008025
 5 2020-12-24 1008025
 6 2020-12-25 1008025
 7 2020-12-26 1944585
 8 2020-12-27 1944585
 9 2020-12-28 2127143
10 2020-12-29 2127143
# ... with 17 more rows
…
See spec(...) for full column specifications.
`summarise()` ungrouping output (override with `.groups` argument)
Parsed with column specification:
cols(
  .default = col_double(),
  date = col_date(format = ""),
  state = col_character()
)
See spec(...) for full column specifications.
`summarise()` ungrouping output (override with `.groups` argument)
Auto-refreshing stale OAuth token.
Writing to "vaccine_viz"
Writing to sheet "vaccines"
`summarise()` ungrouping output (override with `.groups` argument)
# A tibble: 27 x 2
   date         total
   <date>       <dbl>
 1 2020-12-20  556208
 2 2020-12-21  614117
 3 2020-12-22  614117
 4 2020-12-23 1008025
 5 2020-12-24 1008025
 6 2020-12-25 1008025
 7 2020-12-26 1944585
 8 2020-12-27 1944585
 9 2020-12-28 2127143
10 2020-12-29 2127143
# ... with 17 more rows
…
See spec(...) for full column specifications.
`summarise()` ungrouping output (override with `.groups` argument)
Parsed with column specification:
cols(
  .default = col_double(),
  date = col_date(format = ""),
  state = col_character()
)
See spec(...) for full column specifications.
`summarise()` ungrouping output (override with `.groups` argument)
Auto-refreshing stale OAuth token.
Writing to "vaccine_viz"
Writing to sheet "vaccines"
`summarise()` ungrouping output (override with `.groups` argument)
# A tibble: 27 x 2
   date         total
   <date>       <dbl>
 1 2020-12-20  556208
 2 2020-12-21  614117
 3 2020-12-22  614117
 4 2020-12-23 1008025
 5 2020-12-24 1008025
 6 2020-12-25 1008025
 7 2020-12-26 1944585
 8 2020-12-27 1944585
 9 2020-12-28 2127143
10 2020-12-29 2127143
# ... with 17 more rows
…
See spec(...) for full column specifications.
`summarise()` ungrouping output (override with `.groups` argument)
Parsed with column specification:
cols(
  .default = col_double(),
  date = col_date(format = ""),
  state = col_character()
)
See spec(...) for full column specifications.
`summarise()` ungrouping output (override with `.groups` argument)
Auto-refreshing stale OAuth token.
Writing to "vaccine_viz"
Writing to sheet "vaccines"
`summarise()` ungrouping output (override with `.groups` argument)
# A tibble: 27 x 2
   date         total
   <date>       <dbl>
 1 2020-12-20  556208
 2 2020-12-21  614117
 3 2020-12-22  614117
 4 2020-12-23 1008025
 5 2020-12-24 1008025
 6 2020-12-25 1008025
 7 2020-12-26 1944585
 8 2020-12-27 1944585
 9 2020-12-28 2127143
10 2020-12-29 2127143
# ... with 17 more rows
…
See spec(...) for full column specifications.
`summarise()` ungrouping output (override with `.groups` argument)
Parsed with column specification:
cols(
  .default = col_double(),
  date = col_date(format = ""),
  state = col_character()
)
See spec(...) for full column specifications.
`summarise()` ungrouping output (override with `.groups` argument)
Writing to "vaccine_viz"
Writing to sheet "vaccines"
Auto-refreshing stale OAuth token.
`summarise()` ungrouping output (override with `.groups` argument)
# A tibble: 27 x 2
   date         total
   <date>       <dbl>
 1 2020-12-20  556208
 2 2020-12-21  614117
 3 2020-12-22  614117
 4 2020-12-23 1008025
 5 2020-12-24 1008025
 6 2020-12-25 1008025
 7 2020-12-26 1944585
 8 2020-12-27 1944585
 9 2020-12-28 2127143
10 2020-12-29 2127143
# ... with 17 more rows
…
)
See spec(...) for full column specifications.
`summarise()` ungrouping output (override with `.groups` argument)
Parsed with column specification:
cols(
  .default = col_double(),
  date = col_date(format = ""),
  state = col_character()
)
See spec(...) for full column specifications.
`summarise()` ungrouping output (override with `.groups` argument)
Writing to "vaccine_viz"
Writing to sheet "vaccines"
`summarise()` ungrouping output (override with `.groups` argument)
# A tibble: 27 x 2
   date         total
   <date>       <dbl>
 1 2020-12-20  556208
 2 2020-12-21  614117
 3 2020-12-22  614117
 4 2020-12-23 1008025
 5 2020-12-24 1008025
 6 2020-12-25 1008025
 7 2020-12-26 1944585
 8 2020-12-27 1944585
 9 2020-12-28 2127143
10 2020-12-29 2127143
# ... with 17 more rows
…
See spec(...) for full column specifications.
`summarise()` ungrouping output (override with `.groups` argument)
Parsed with column specification:
cols(
  .default = col_double(),
  date = col_date(format = ""),
  state = col_character()
)
See spec(...) for full column specifications.
`summarise()` ungrouping output (override with `.groups` argument)
Auto-refreshing stale OAuth token.
Writing to "vaccine_viz"
Writing to sheet "vaccines"
`summarise()` ungrouping output (override with `.groups` argument)
# A tibble: 27 x 2
   date         total
   <date>       <dbl>
 1 2020-12-20  556208
 2 2020-12-21  614117
 3 2020-12-22  614117
 4 2020-12-23 1008025
 5 2020-12-24 1008025
 6 2020-12-25 1008025
 7 2020-12-26 1944585
 8 2020-12-27 1944585
 9 2020-12-28 2127143
10 2020-12-29 2127143
# ... with 17 more rows
…
See spec(...) for full column specifications.
`summarise()` ungrouping output (override with `.groups` argument)
Parsed with column specification:
cols(
  .default = col_double(),
  date = col_date(format = ""),
  state = col_character()
)
See spec(...) for full column specifications.
`summarise()` ungrouping output (override with `.groups` argument)
Writing to "vaccine_viz"
Writing to sheet "vaccines"
Auto-refreshing stale OAuth token.
`summarise()` ungrouping output (override with `.groups` argument)
# A tibble: 27 x 2
   date         total
   <date>       <dbl>
 1 2020-12-20  556208
 2 2020-12-21  614117
 3 2020-12-22  614117
 4 2020-12-23 1008025
 5 2020-12-24 1008025
 6 2020-12-25 1008025
 7 2020-12-26 1944585
 8 2020-12-27 1944585
 9 2020-12-28 2127143
10 2020-12-29 2127143
# ... with 17 more rows
…
See spec(...) for full column specifications.
`summarise()` ungrouping output (override with `.groups` argument)
Parsed with column specification:
cols(
  .default = col_double(),
  date = col_date(format = ""),
  state = col_character()
)
See spec(...) for full column specifications.
`summarise()` ungrouping output (override with `.groups` argument)
Writing to "vaccine_viz"
Writing to sheet "vaccines"
Auto-refreshing stale OAuth token.
`summarise()` ungrouping output (override with `.groups` argument)
# A tibble: 27 x 2
   date         total
   <date>       <dbl>
 1 2020-12-20  556208
 2 2020-12-21  614117
 3 2020-12-22  614117
 4 2020-12-23 1008025
 5 2020-12-24 1008025
 6 2020-12-25 1008025
 7 2020-12-26 1944585
 8 2020-12-27 1944585
 9 2020-12-28 2127143
10 2020-12-29 2127143
# ... with 17 more rows
…
)
See spec(...) for full column specifications.
`summarise()` ungrouping output (override with `.groups` argument)
Parsed with column specification:
cols(
  .default = col_double(),
  date = col_date(format = ""),
  state = col_character()
)
See spec(...) for full column specifications.
`summarise()` ungrouping output (override with `.groups` argument)
Writing to "vaccine_viz"
Writing to sheet "vaccines"
`summarise()` ungrouping output (override with `.groups` argument)
# A tibble: 27 x 2
   date         total
   <date>       <dbl>
 1 2020-12-20  556208
 2 2020-12-21  614117
 3 2020-12-22  614117
 4 2020-12-23 1008025
 5 2020-12-24 1008025
 6 2020-12-25 1008025
 7 2020-12-26 1944585
 8 2020-12-27 1944585
 9 2020-12-28 2127143
10 2020-12-29 2127143
# ... with 17 more rows
…
See spec(...) for full column specifications.
`summarise()` ungrouping output (override with `.groups` argument)
Parsed with column specification:
cols(
  .default = col_double(),
  date = col_date(format = ""),
  state = col_character()
)
See spec(...) for full column specifications.
`summarise()` ungrouping output (override with `.groups` argument)
Auto-refreshing stale OAuth token.
Writing to "vaccine_viz"
Writing to sheet "vaccines"
`summarise()` ungrouping output (override with `.groups` argument)
# A tibble: 27 x 2
   date         total
   <date>       <dbl>
 1 2020-12-20  556208
 2 2020-12-21  614117
 3 2020-12-22  614117
 4 2020-12-23 1008025
 5 2020-12-24 1008025
 6 2020-12-25 1008025
 7 2020-12-26 1944585
 8 2020-12-27 1944585
 9 2020-12-28 2127143
10 2020-12-29 2127143
# ... with 17 more rows
…
